EESchema Schematic File Version 2
LIBS:power
LIBS:device
LIBS:transistors
LIBS:conn
LIBS:linear
LIBS:regul
LIBS:74xx
LIBS:cmos4000
LIBS:adc-dac
LIBS:memory
LIBS:xilinx
LIBS:microcontrollers
LIBS:dsp
LIBS:microchip
LIBS:analog_switches
LIBS:motorola
LIBS:texas
LIBS:intel
LIBS:audio
LIBS:interface
LIBS:digital-audio
LIBS:philips
LIBS:display
LIBS:cypress
LIBS:siliconi
LIBS:opto
LIBS:atmel
LIBS:contrib
LIBS:valves
LIBS:stm32
LIBS:tl494
LIBS:handler
LIBS:lph7366
LIBS:iface
LIBS:radio
LIBS:esdprot
LIBS:project-cache
EELAYER 25 0
EELAYER END
$Descr A4 11693 8268
encoding utf-8
Sheet 1 1
Title "Regulated Power Supply"
Date "Пт 13 фев 2015"
Rev "0.2.0"
Comp "Illumium.Org"
Comment1 ""
Comment2 "K. <kayo@illumium.org>"
Comment3 ""
Comment4 ""
$EndDescr
$Comp
L C C105
U 1 1 54DB7A57
P 3900 7150
F 0 "C105" H 3950 7250 50  0000 L CNN
F 1 "10n" H 3950 7050 50  0000 L CNN
F 2 "Local:C_0603" H 3938 7000 30  0001 C CNN
F 3 "" H 3900 7150 60  0000 C CNN
	1    3900 7150
	-1   0    0    -1  
$EndComp
$Comp
L +3V3 #PWR01
U 1 1 54DB7D52
P 1100 3100
F 0 "#PWR01" H 1100 2950 60  0001 C CNN
F 1 "+3V3" V 1100 3350 60  0000 C CNN
F 2 "" H 1100 3100 60  0000 C CNN
F 3 "" H 1100 3100 60  0000 C CNN
	1    1100 3100
	0    -1   -1   0   
$EndComp
$Comp
L C C101
U 1 1 54DB7E0B
P 2600 7150
F 0 "C101" H 2650 7250 50  0000 L CNN
F 1 "100n" H 2650 7050 50  0000 L CNN
F 2 "Local:C_0603" H 2638 7000 30  0001 C CNN
F 3 "" H 2600 7150 60  0000 C CNN
	1    2600 7150
	-1   0    0    -1  
$EndComp
$Comp
L C C102
U 1 1 54DB7E38
P 2900 7150
F 0 "C102" H 2950 7250 50  0000 L CNN
F 1 "100n" H 2950 7050 50  0000 L CNN
F 2 "Local:C_0603" H 2938 7000 30  0001 C CNN
F 3 "" H 2900 7150 60  0000 C CNN
	1    2900 7150
	-1   0    0    -1  
$EndComp
$Comp
L C C103
U 1 1 54DB7E6A
P 3200 7150
F 0 "C103" H 3250 7250 50  0000 L CNN
F 1 "100n" H 3250 7050 50  0000 L CNN
F 2 "Local:C_0603" H 3238 7000 30  0001 C CNN
F 3 "" H 3200 7150 60  0000 C CNN
	1    3200 7150
	-1   0    0    -1  
$EndComp
$Comp
L C C107
U 1 1 54DB664D
P 800 3950
F 0 "C107" H 850 4050 50  0000 L CNN
F 1 "100n" H 850 3850 50  0000 L CNN
F 2 "Local:C_0603" H 838 3800 30  0001 C CNN
F 3 "" H 800 3950 60  0000 C CNN
	1    800  3950
	-1   0    0    -1  
$EndComp
$Comp
L GND #PWR02
U 1 1 54DB69D7
P 1100 4200
F 0 "#PWR02" H 1100 3950 60  0001 C CNN
F 1 "GND" H 1100 4050 60  0000 C CNN
F 2 "" H 1100 4200 60  0000 C CNN
F 3 "" H 1100 4200 60  0000 C CNN
	1    1100 4200
	1    0    0    -1  
$EndComp
$Comp
L GND #PWR03
U 1 1 54DB6AE1
P 800 4200
F 0 "#PWR03" H 800 3950 60  0001 C CNN
F 1 "GND" H 800 4050 60  0000 C CNN
F 2 "" H 800 4200 60  0000 C CNN
F 3 "" H 800 4200 60  0000 C CNN
	1    800  4200
	1    0    0    -1  
$EndComp
$Comp
L LD1117S33CTR U110
U 1 1 54DB7E58
P 1300 6950
F 0 "U110" H 1300 7250 40  0000 C CNN
F 1 "AD1117-3V3" H 1300 7150 40  0000 C CNN
F 2 "Local:SOT-223" H 1300 7050 40  0001 C CNN
F 3 "" H 1300 6950 60  0000 C CNN
	1    1300 6950
	1    0    0    -1  
$EndComp
$Comp
L CP C111
U 1 1 54DB81A7
P 1800 7150
F 0 "C111" H 1800 7250 50  0000 L CNN
F 1 "47u 25V" H 1650 7050 50  0000 L CNN
F 2 "Local:C_1206" H 1838 7000 30  0001 C CNN
F 3 "" H 1800 7150 60  0000 C CNN
	1    1800 7150
	-1   0    0    -1  
$EndComp
$Comp
L GND #PWR04
U 1 1 54DB8267
P 1300 7400
F 0 "#PWR04" H 1300 7150 60  0001 C CNN
F 1 "GND" H 1300 7250 60  0000 C CNN
F 2 "" H 1300 7400 60  0000 C CNN
F 3 "" H 1300 7400 60  0000 C CNN
	1    1300 7400
	1    0    0    -1  
$EndComp
$Comp
L +3V3 #PWR05
U 1 1 54DB851C
P 1800 6800
F 0 "#PWR05" H 1800 6650 60  0001 C CNN
F 1 "+3V3" H 1800 6940 60  0000 C CNN
F 2 "" H 1800 6800 60  0000 C CNN
F 3 "" H 1800 6800 60  0000 C CNN
	1    1800 6800
	1    0    0    -1  
$EndComp
$Comp
L GND #PWR06
U 1 1 54DD48E7
P 4800 7400
F 0 "#PWR06" H 4800 7150 60  0001 C CNN
F 1 "GND" H 4800 7250 60  0000 C CNN
F 2 "" H 4800 7400 60  0000 C CNN
F 3 "" H 4800 7400 60  0000 C CNN
	1    4800 7400
	1    0    0    -1  
$EndComp
$Comp
L +3V3 #PWR07
U 1 1 54DD4A66
P 4800 6900
F 0 "#PWR07" H 4800 6750 60  0001 C CNN
F 1 "+3V3" H 4800 7040 60  0000 C CNN
F 2 "" H 4800 6900 60  0000 C CNN
F 3 "" H 4800 6900 60  0000 C CNN
	1    4800 6900
	1    0    0    -1  
$EndComp
$Comp
L GND #PWR08
U 1 1 54DB7DDF
P 3900 7400
F 0 "#PWR08" H 3900 7150 60  0001 C CNN
F 1 "GND" H 3900 7250 60  0000 C CNN
F 2 "" H 3900 7400 60  0000 C CNN
F 3 "" H 3900 7400 60  0000 C CNN
	1    3900 7400
	1    0    0    -1  
$EndComp
Text GLabel 1200 3000 0    47   Input ~ 0
~RESET
Text GLabel 1200 2200 0    47   Input ~ 0
SWDIO
Text GLabel 1200 2300 0    47   Input ~ 0
SWCLK
$Comp
L CP C110
U 1 1 56F41E69
P 800 7150
F 0 "C110" H 850 7250 50  0000 L CNN
F 1 "47u 25V" H 650 7050 50  0000 L CNN
F 2 "Local:C_1206" H 838 7000 30  0001 C CNN
F 3 "" H 800 7150 60  0000 C CNN
	1    800  7150
	-1   0    0    -1  
$EndComp
$Comp
L GND #PWR09
U 1 1 56F44119
P 800 7400
F 0 "#PWR09" H 800 7150 60  0001 C CNN
F 1 "GND" H 800 7250 60  0000 C CNN
F 2 "" H 800 7400 60  0000 C CNN
F 3 "" H 800 7400 60  0000 C CNN
	1    800  7400
	1    0    0    -1  
$EndComp
$Comp
L GND #PWR010
U 1 1 56F48BF1
P 1800 7400
F 0 "#PWR010" H 1800 7150 60  0001 C CNN
F 1 "GND" H 1800 7250 60  0000 C CNN
F 2 "" H 1800 7400 60  0000 C CNN
F 3 "" H 1800 7400 60  0000 C CNN
	1    1800 7400
	1    0    0    -1  
$EndComp
Text GLabel 800  3700 1    47   Input ~ 0
~RESET
$Comp
L GND #PWR011
U 1 1 57049C61
P 2600 7400
F 0 "#PWR011" H 2600 7150 60  0001 C CNN
F 1 "GND" H 2600 7250 60  0000 C CNN
F 2 "" H 2600 7400 60  0000 C CNN
F 3 "" H 2600 7400 60  0000 C CNN
	1    2600 7400
	1    0    0    -1  
$EndComp
$Comp
L GND #PWR012
U 1 1 57049D47
P 2900 7400
F 0 "#PWR012" H 2900 7150 60  0001 C CNN
F 1 "GND" H 2900 7250 60  0000 C CNN
F 2 "" H 2900 7400 60  0000 C CNN
F 3 "" H 2900 7400 60  0000 C CNN
	1    2900 7400
	1    0    0    -1  
$EndComp
$Comp
L GND #PWR013
U 1 1 57049E2D
P 3200 7400
F 0 "#PWR013" H 3200 7150 60  0001 C CNN
F 1 "GND" H 3200 7250 60  0000 C CNN
F 2 "" H 3200 7400 60  0000 C CNN
F 3 "" H 3200 7400 60  0000 C CNN
	1    3200 7400
	1    0    0    -1  
$EndComp
$Comp
L +3V3 #PWR014
U 1 1 57049FF6
P 2600 6900
F 0 "#PWR014" H 2600 6750 60  0001 C CNN
F 1 "+3V3" H 2600 7040 60  0000 C CNN
F 2 "" H 2600 6900 60  0000 C CNN
F 3 "" H 2600 6900 60  0000 C CNN
	1    2600 6900
	1    0    0    -1  
$EndComp
$Comp
L +3V3 #PWR015
U 1 1 5704A0DC
P 2900 6900
F 0 "#PWR015" H 2900 6750 60  0001 C CNN
F 1 "+3V3" H 2900 7040 60  0000 C CNN
F 2 "" H 2900 6900 60  0000 C CNN
F 3 "" H 2900 6900 60  0000 C CNN
	1    2900 6900
	1    0    0    -1  
$EndComp
$Comp
L +3V3 #PWR016
U 1 1 5704A1C2
P 3200 6900
F 0 "#PWR016" H 3200 6750 60  0001 C CNN
F 1 "+3V3" H 3200 7040 60  0000 C CNN
F 2 "" H 3200 6900 60  0000 C CNN
F 3 "" H 3200 6900 60  0000 C CNN
	1    3200 6900
	1    0    0    -1  
$EndComp
$Comp
L SWD J100
U 1 1 58BF40F6
P 5300 7150
F 0 "J100" H 5300 7450 60  0000 C CNN
F 1 "SWD" H 5300 6850 60  0000 C CNN
F 2 "Local:Pin_Header_Straight_1x04_Pitch2.54mm" H 5100 7150 60  0001 C CNN
F 3 "" H 5100 7150 60  0000 C CNN
	1    5300 7150
	1    0    0    -1  
$EndComp
$Comp
L C C106
U 1 1 58BF55B3
P 4200 7150
F 0 "C106" H 4250 7250 50  0000 L CNN
F 1 "1u" H 4250 7050 50  0000 L CNN
F 2 "Local:C_0805" H 4238 7000 30  0001 C CNN
F 3 "" H 4200 7150 60  0000 C CNN
	1    4200 7150
	-1   0    0    -1  
$EndComp
$Comp
L GND #PWR017
U 1 1 58BF587C
P 4200 7400
F 0 "#PWR017" H 4200 7150 60  0001 C CNN
F 1 "GND" H 4200 7250 60  0000 C CNN
F 2 "" H 4200 7400 60  0000 C CNN
F 3 "" H 4200 7400 60  0000 C CNN
	1    4200 7400
	1    0    0    -1  
$EndComp
Text GLabel 4700 7000 0    47   Input ~ 0
SWDIO
Text GLabel 4700 7200 0    47   Input ~ 0
SWCLK
Text GLabel 800  4900 1    47   Input ~ 0
OSC_IN
Text GLabel 1300 4900 1    47   Input ~ 0
OSC_OUT
$Comp
L Crystal Y100
U 1 1 58C0E27A
P 1050 5300
F 0 "Y100" H 1050 5450 50  0000 C CNN
F 1 "8MHz" H 1050 5150 50  0000 C CNN
F 2 "Local:Crystal_HC49-U_Vertical" H 1050 5300 60  0001 C CNN
F 3 "" H 1050 5300 60  0000 C CNN
	1    1050 5300
	1    0    0    -1  
$EndComp
$Comp
L C C108
U 1 1 58C0E281
P 800 5550
F 0 "C108" H 825 5650 50  0000 L CNN
F 1 "27p" H 825 5450 50  0000 L CNN
F 2 "Local:C_0603" H 838 5400 30  0001 C CNN
F 3 "" H 800 5550 60  0000 C CNN
	1    800  5550
	-1   0    0    -1  
$EndComp
$Comp
L C C109
U 1 1 58C0E288
P 1300 5550
F 0 "C109" H 1325 5650 50  0000 L CNN
F 1 "27p" H 1325 5450 50  0000 L CNN
F 2 "Local:C_0603" H 1338 5400 30  0001 C CNN
F 3 "" H 1300 5550 60  0000 C CNN
	1    1300 5550
	1    0    0    -1  
$EndComp
$Comp
L GND #PWR018
U 1 1 58C0E28F
P 1300 5800
F 0 "#PWR018" H 1300 5550 50  0001 C CNN
F 1 "GND" H 1300 5650 50  0000 C CNN
F 2 "" H 1300 5800 60  0000 C CNN
F 3 "" H 1300 5800 60  0000 C CNN
	1    1300 5800
	1    0    0    -1  
$EndComp
$Comp
L GND #PWR019
U 1 1 58C0E295
P 800 5800
F 0 "#PWR019" H 800 5550 50  0001 C CNN
F 1 "GND" H 800 5650 50  0000 C CNN
F 2 "" H 800 5800 60  0000 C CNN
F 3 "" H 800 5800 60  0000 C CNN
	1    800  5800
	1    0    0    -1  
$EndComp
$Comp
L R R100
U 1 1 58C0E29B
P 1050 5000
F 0 "R100" V 1130 5000 50  0000 C CNN
F 1 "1M" V 1057 5001 50  0000 C CNN
F 2 "Local:R_0603" V 980 5000 30  0001 C CNN
F 3 "" H 1050 5000 30  0000 C CNN
	1    1050 5000
	0    -1   -1   0   
$EndComp
Text GLabel 1200 2600 0    47   Input ~ 0
OSC_IN
Text GLabel 1200 2700 0    47   Input ~ 0
OSC_OUT
$Comp
L C C104
U 1 1 58C14AC2
P 3500 7150
F 0 "C104" H 3550 7250 50  0000 L CNN
F 1 "10u" H 3550 7050 50  0000 L CNN
F 2 "Local:C_0805" H 3538 7000 30  0001 C CNN
F 3 "" H 3500 7150 60  0000 C CNN
	1    3500 7150
	-1   0    0    -1  
$EndComp
$Comp
L GND #PWR020
U 1 1 58C14AC8
P 3500 7400
F 0 "#PWR020" H 3500 7150 60  0001 C CNN
F 1 "GND" H 3500 7250 60  0000 C CNN
F 2 "" H 3500 7400 60  0000 C CNN
F 3 "" H 3500 7400 60  0000 C CNN
	1    3500 7400
	1    0    0    -1  
$EndComp
$Comp
L +3V3 #PWR021
U 1 1 58C14B85
P 3500 6900
F 0 "#PWR021" H 3500 6750 60  0001 C CNN
F 1 "+3V3" H 3500 7040 60  0000 C CNN
F 2 "" H 3500 6900 60  0000 C CNN
F 3 "" H 3500 6900 60  0000 C CNN
	1    3500 6900
	1    0    0    -1  
$EndComp
Wire Wire Line
	3500 6900 3500 7000
Wire Wire Line
	3500 7300 3500 7400
Connection ~ 800  5000
Wire Wire Line
	900  5000 800  5000
Connection ~ 1300 5000
Wire Wire Line
	1300 5000 1200 5000
Wire Wire Line
	1300 5700 1300 5800
Wire Wire Line
	800  5700 800  5800
Connection ~ 800  5300
Connection ~ 1300 5300
Wire Wire Line
	1300 5300 1200 5300
Wire Wire Line
	1300 4900 1300 5400
Wire Wire Line
	800  5300 900  5300
Wire Wire Line
	800  4900 800  5400
Wire Wire Line
	4200 7300 4200 7400
Wire Wire Line
	4200 6900 4200 7000
Wire Wire Line
	3200 6900 3200 7000
Wire Wire Line
	2900 6900 2900 7000
Wire Wire Line
	2600 6900 2600 7000
Wire Wire Line
	3900 6900 3900 7000
Wire Wire Line
	3900 7300 3900 7400
Wire Wire Line
	2600 7300 2600 7400
Wire Wire Line
	2900 7300 2900 7400
Wire Wire Line
	3200 7300 3200 7400
Wire Wire Line
	4800 7300 4800 7400
Wire Wire Line
	4900 7300 4800 7300
Wire Wire Line
	1800 7300 1800 7400
Connection ~ 800  6900
Wire Wire Line
	800  6800 800  7000
Wire Wire Line
	800  7300 800  7400
Wire Wire Line
	800  6900 900  6900
Wire Wire Line
	800  3800 800  3700
Wire Wire Line
	800  4200 800  4100
Wire Wire Line
	1300 3000 1200 3000
Wire Wire Line
	4900 7200 4700 7200
Wire Wire Line
	4900 7000 4700 7000
Wire Wire Line
	4800 7100 4800 6900
Wire Wire Line
	4900 7100 4800 7100
Connection ~ 1800 6900
Wire Wire Line
	1300 7200 1300 7400
Wire Wire Line
	1800 6800 1800 7000
Wire Wire Line
	1700 6900 1800 6900
Wire Wire Line
	1300 2700 1200 2700
Wire Wire Line
	1300 2600 1200 2600
Wire Wire Line
	1300 2300 1200 2300
Wire Wire Line
	1300 2200 1200 2200
Text Notes 950  6550 0    60   ~ 0
POWER SUPPLY
$Comp
L CONN_01X01 M100
U 1 1 58C1BBA3
P 5800 7100
F 0 "M100" H 5800 7200 50  0000 C CNN
F 1 "M3" V 5900 7100 50  0000 C CNN
F 2 "Local:MountingHole_3mm" H 5800 7100 50  0001 C CNN
F 3 "" H 5800 7100 50  0000 C CNN
	1    5800 7100
	0    -1   -1   0   
$EndComp
$Comp
L CONN_01X01 M101
U 1 1 58C1BC6F
P 6100 7100
F 0 "M101" H 6100 7200 50  0000 C CNN
F 1 "M3" V 6200 7100 50  0000 C CNN
F 2 "Local:MountingHole_3mm" H 6100 7100 50  0001 C CNN
F 3 "" H 6100 7100 50  0000 C CNN
	1    6100 7100
	0    -1   -1   0   
$EndComp
Wire Wire Line
	5800 7300 5800 7400
Wire Wire Line
	6100 7300 6100 7400
$Comp
L GND #PWR022
U 1 1 58C1C2DC
P 5800 7400
F 0 "#PWR022" H 5800 7150 60  0001 C CNN
F 1 "GND" H 5800 7250 60  0000 C CNN
F 2 "" H 5800 7400 60  0000 C CNN
F 3 "" H 5800 7400 60  0000 C CNN
	1    5800 7400
	1    0    0    -1  
$EndComp
$Comp
L GND #PWR023
U 1 1 58C1C33B
P 6100 7400
F 0 "#PWR023" H 6100 7150 60  0001 C CNN
F 1 "GND" H 6100 7250 60  0000 C CNN
F 2 "" H 6100 7400 60  0000 C CNN
F 3 "" H 6100 7400 60  0000 C CNN
	1    6100 7400
	1    0    0    -1  
$EndComp
$Comp
L +5V #PWR024
U 1 1 58EF9CAE
P 800 6800
F 0 "#PWR024" H 800 6650 50  0001 C CNN
F 1 "+5V" H 800 6940 50  0000 C CNN
F 2 "" H 800 6800 50  0000 C CNN
F 3 "" H 800 6800 50  0000 C CNN
	1    800  6800
	1    0    0    -1  
$EndComp
$Comp
L STM32F103RBT6 U100
U 1 1 58EFA540
P 2900 2500
F 0 "U100" H 2900 4300 60  0000 C CNN
F 1 "STM32F103RBT6" H 2900 700 60  0000 C CNN
F 2 "Local:LQFP-64_10x10mm_Pitch0.5mm" H 2900 2500 60  0001 C CNN
F 3 "" H 2900 2500 60  0000 C CNN
	1    2900 2500
	1    0    0    -1  
$EndComp
Wire Wire Line
	1100 3100 1300 3100
Wire Wire Line
	1200 3100 1200 4100
Wire Wire Line
	1200 3300 1300 3300
Wire Wire Line
	1200 3500 1300 3500
Connection ~ 1200 3300
Wire Wire Line
	1200 3700 1300 3700
Connection ~ 1200 3500
Wire Wire Line
	1200 3900 1300 3900
Connection ~ 1200 3700
Wire Wire Line
	1200 4100 1300 4100
Connection ~ 1200 3900
Wire Wire Line
	1300 3200 1100 3200
Wire Wire Line
	1100 3200 1100 4200
Wire Wire Line
	1100 3400 1300 3400
Wire Wire Line
	1100 3600 1300 3600
Connection ~ 1100 3400
Wire Wire Line
	1100 3800 1300 3800
Connection ~ 1100 3600
Wire Wire Line
	1100 4000 1300 4000
Connection ~ 1100 3800
Connection ~ 1100 4000
Connection ~ 1200 3100
$Comp
L C C100
U 1 1 58EFB2CD
P 2300 7150
F 0 "C100" H 2350 7250 50  0000 L CNN
F 1 "100n" H 2350 7050 50  0000 L CNN
F 2 "Local:C_0603" H 2338 7000 30  0001 C CNN
F 3 "" H 2300 7150 60  0000 C CNN
	1    2300 7150
	-1   0    0    -1  
$EndComp
$Comp
L GND #PWR025
U 1 1 58EFB2D3
P 2300 7400
F 0 "#PWR025" H 2300 7150 60  0001 C CNN
F 1 "GND" H 2300 7250 60  0000 C CNN
F 2 "" H 2300 7400 60  0000 C CNN
F 3 "" H 2300 7400 60  0000 C CNN
	1    2300 7400
	1    0    0    -1  
$EndComp
$Comp
L +3V3 #PWR026
U 1 1 58EFB2D9
P 2300 6900
F 0 "#PWR026" H 2300 6750 60  0001 C CNN
F 1 "+3V3" H 2300 7040 60  0000 C CNN
F 2 "" H 2300 6900 60  0000 C CNN
F 3 "" H 2300 6900 60  0000 C CNN
	1    2300 6900
	1    0    0    -1  
$EndComp
Wire Wire Line
	2300 6900 2300 7000
Wire Wire Line
	2300 7300 2300 7400
$Comp
L +3V3 #PWR027
U 1 1 58EFB6FF
P 3900 6900
F 0 "#PWR027" H 3900 6750 60  0001 C CNN
F 1 "+3V3" H 3900 7040 60  0000 C CNN
F 2 "" H 3900 6900 60  0000 C CNN
F 3 "" H 3900 6900 60  0000 C CNN
	1    3900 6900
	1    0    0    -1  
$EndComp
$Comp
L +3V3 #PWR028
U 1 1 58EFB749
P 4200 6900
F 0 "#PWR028" H 4200 6750 60  0001 C CNN
F 1 "+3V3" H 4200 7040 60  0000 C CNN
F 2 "" H 4200 6900 60  0000 C CNN
F 3 "" H 4200 6900 60  0000 C CNN
	1    4200 6900
	1    0    0    -1  
$EndComp
Wire Wire Line
	1300 1100 1200 1100
Wire Wire Line
	1300 1200 1200 1200
Text GLabel 1200 1100 0    47   Input ~ 0
UART2_TX
Text GLabel 1200 1200 0    47   Input ~ 0
UART2_RX
Text GLabel 1200 1000 0    47   Input ~ 0
UART2_~RE
Text GLabel 1200 900  0    47   Input ~ 0
UART2_DE
Wire Wire Line
	1300 1000 1200 1000
Wire Wire Line
	1300 900  1200 900 
Text GLabel 1200 1800 0    47   Input ~ 0
UART1_TX
Text GLabel 1200 1900 0    47   Input ~ 0
UART1_RX
Wire Wire Line
	1300 1800 1200 1800
Wire Wire Line
	1300 1900 1200 1900
Wire Wire Line
	1300 1500 1200 1500
Wire Wire Line
	1300 1600 1200 1600
Text GLabel 4600 2000 2    47   Input ~ 0
UART1_DE
Text GLabel 4600 2100 2    47   Input ~ 0
UART1_~RE
Wire Wire Line
	1300 2800 1200 2800
Wire Wire Line
	1300 2900 1200 2900
Wire Wire Line
	1300 2400 1200 2400
NoConn ~ 1200 2800
NoConn ~ 1200 2400
Text GLabel 4600 3600 2    47   Input ~ 0
UART3_TX
Text GLabel 4600 3700 2    47   Input ~ 0
UART3_RX
Text GLabel 4600 2700 2    47   Input ~ 0
UART3_DE
Text GLabel 4600 4000 2    47   Input ~ 0
UART3_~RE
Wire Wire Line
	4600 3600 4500 3600
Wire Wire Line
	4600 3700 4500 3700
Wire Wire Line
	4600 3900 4500 3900
Wire Wire Line
	4600 4000 4500 4000
Wire Wire Line
	4500 4100 4600 4100
Wire Wire Line
	4500 3800 4600 3800
Wire Wire Line
	1300 2000 1200 2000
Wire Wire Line
	1300 2100 1200 2100
Text GLabel 1200 2000 0    47   Input ~ 0
USB_DM
Text GLabel 1200 2100 0    47   Input ~ 0
USB_DP
Wire Wire Line
	1300 1300 1200 1300
Wire Wire Line
	1300 1400 1200 1400
Wire Wire Line
	1300 1700 1200 1700
NoConn ~ 4600 4100
$Comp
L RJ12 P122
U 1 1 58F00BEA
P 8850 1200
F 0 "P122" V 8450 1200 60  0000 C CNN
F 1 "RS485_1" V 9300 1100 60  0000 C CNN
F 2 "Local:RJ12" H 8850 1200 60  0001 C CNN
F 3 "" H 8850 1200 60  0000 C CNN
	1    8850 1200
	0    1    1    0   
$EndComp
$Comp
L GND #PWR029
U 1 1 58F00BF1
P 8300 1600
F 0 "#PWR029" H 8300 1350 50  0001 C CNN
F 1 "GND" H 8300 1450 50  0000 C CNN
F 2 "" H 8300 1600 60  0000 C CNN
F 3 "" H 8300 1600 60  0000 C CNN
	1    8300 1600
	1    0    0    -1  
$EndComp
$Comp
L RJ12 P123
U 1 1 58F00BF7
P 10550 1200
F 0 "P123" V 10150 1200 60  0000 C CNN
F 1 "RS485_1" V 11000 1100 60  0000 C CNN
F 2 "Local:RJ12" H 10550 1200 60  0001 C CNN
F 3 "" H 10550 1200 60  0000 C CNN
	1    10550 1200
	0    1    1    0   
$EndComp
$Comp
L GND #PWR030
U 1 1 58F00BFE
P 10000 1600
F 0 "#PWR030" H 10000 1350 50  0001 C CNN
F 1 "GND" H 10000 1450 50  0000 C CNN
F 2 "" H 10000 1600 60  0000 C CNN
F 3 "" H 10000 1600 60  0000 C CNN
	1    10000 1600
	1    0    0    -1  
$EndComp
$Comp
L GND #PWR031
U 1 1 58F00C04
P 6900 1400
F 0 "#PWR031" H 6900 1150 50  0001 C CNN
F 1 "GND" H 6900 1250 50  0000 C CNN
F 2 "" H 6900 1400 60  0000 C CNN
F 3 "" H 6900 1400 60  0000 C CNN
	1    6900 1400
	1    0    0    -1  
$EndComp
$Comp
L MAX485 U120
U 1 1 58F00C0A
P 6400 1150
F 0 "U120" H 6400 1450 60  0000 C CNN
F 1 "MAX485" H 6400 850 60  0000 C CNN
F 2 "Local:SOIC-8_3.9x4.9mm_Pitch1.27mm" H 6240 1150 60  0001 C CNN
F 3 "" H 6240 1150 60  0000 C CNN
	1    6400 1150
	1    0    0    -1  
$EndComp
$Comp
L +3V3 #PWR032
U 1 1 58F00C11
P 6900 900
F 0 "#PWR032" H 6900 750 50  0001 C CNN
F 1 "+3V3" H 6900 1040 50  0000 C CNN
F 2 "" H 6900 900 60  0000 C CNN
F 3 "" H 6900 900 60  0000 C CNN
	1    6900 900 
	1    0    0    -1  
$EndComp
Text GLabel 6900 1100 2    47   Input ~ 0
RS485_1B
Text GLabel 6900 1200 2    47   Input ~ 0
RS485_1A
Text GLabel 5900 1000 0    47   Input ~ 0
UART1_RX
Wire Wire Line
	6900 1300 6900 1400
Wire Wire Line
	10000 1200 10100 1200
Wire Wire Line
	10000 900  10000 1200
Wire Wire Line
	10000 1400 10000 1600
Wire Wire Line
	10100 1400 10000 1400
Wire Wire Line
	8400 1300 8200 1300
Wire Wire Line
	8400 1100 8200 1100
Wire Wire Line
	8300 1200 8400 1200
Wire Wire Line
	8300 900  8300 1200
Wire Wire Line
	8300 1400 8300 1600
Wire Wire Line
	8400 1400 8300 1400
Wire Wire Line
	6900 1300 6800 1300
Wire Wire Line
	6800 1000 6900 1000
Wire Wire Line
	6900 1000 6900 900 
Wire Wire Line
	6800 1100 6900 1100
Wire Wire Line
	6800 1200 6900 1200
Wire Wire Line
	6000 1000 5900 1000
Wire Wire Line
	6000 1100 5900 1100
Wire Wire Line
	6000 1200 5900 1200
Wire Wire Line
	6000 1300 5900 1300
Text GLabel 5900 1300 0    47   Input ~ 0
UART1_TX
Text GLabel 5900 1100 0    47   Input ~ 0
UART1_~RE
Text GLabel 5900 1200 0    47   Input ~ 0
UART1_DE
Text GLabel 8200 1100 0    47   Input ~ 0
RS485_1B
Text GLabel 8200 1300 0    47   Input ~ 0
RS485_1A
Wire Wire Line
	10100 1100 9900 1100
Wire Wire Line
	10100 1300 9900 1300
Text GLabel 9900 1100 0    47   Input ~ 0
RS485_1B
Text GLabel 9900 1300 0    47   Input ~ 0
RS485_1A
$Comp
L C C120
U 1 1 58F00C37
P 7500 1150
F 0 "C120" H 7525 1250 50  0000 L CNN
F 1 "100n" H 7525 1050 50  0000 L CNN
F 2 "Local:C_0603" H 7538 1000 30  0001 C CNN
F 3 "" H 7500 1150 60  0000 C CNN
	1    7500 1150
	1    0    0    -1  
$EndComp
$Comp
L +3V3 #PWR033
U 1 1 58F00C3E
P 7500 900
F 0 "#PWR033" H 7500 750 50  0001 C CNN
F 1 "+3V3" H 7500 1040 50  0000 C CNN
F 2 "" H 7500 900 60  0000 C CNN
F 3 "" H 7500 900 60  0000 C CNN
	1    7500 900 
	1    0    0    -1  
$EndComp
$Comp
L GND #PWR034
U 1 1 58F00C44
P 7500 1400
F 0 "#PWR034" H 7500 1150 50  0001 C CNN
F 1 "GND" H 7500 1250 50  0000 C CNN
F 2 "" H 7500 1400 60  0000 C CNN
F 3 "" H 7500 1400 60  0000 C CNN
	1    7500 1400
	1    0    0    -1  
$EndComp
Wire Wire Line
	7500 1000 7500 900 
Wire Wire Line
	7500 1400 7500 1300
$Comp
L +3V3 #PWR035
U 1 1 58F00C4C
P 8300 900
F 0 "#PWR035" H 8300 750 50  0001 C CNN
F 1 "+3V3" H 8300 1040 50  0000 C CNN
F 2 "" H 8300 900 60  0000 C CNN
F 3 "" H 8300 900 60  0000 C CNN
	1    8300 900 
	1    0    0    -1  
$EndComp
$Comp
L +3V3 #PWR036
U 1 1 58F00C52
P 10000 900
F 0 "#PWR036" H 10000 750 50  0001 C CNN
F 1 "+3V3" H 10000 1040 50  0000 C CNN
F 2 "" H 10000 900 60  0000 C CNN
F 3 "" H 10000 900 60  0000 C CNN
	1    10000 900 
	1    0    0    -1  
$EndComp
NoConn ~ 8400 1000
NoConn ~ 8400 1500
NoConn ~ 10100 1000
NoConn ~ 10100 1500
$Comp
L R R112
U 1 1 58F020CA
P 3500 6150
F 0 "R112" V 3580 6150 50  0000 C CNN
F 1 "1K5" V 3500 6150 50  0000 C CNN
F 2 "Local:R_0603" H 3500 6150 60  0001 C CNN
F 3 "" H 3500 6150 60  0001 C CNN
	1    3500 6150
	-1   0    0    -1  
$EndComp
$Comp
L GND #PWR037
U 1 1 58F020D1
P 2400 5250
F 0 "#PWR037" H 2400 5250 30  0001 C CNN
F 1 "GND" H 2400 5180 30  0001 C CNN
F 2 "" H 2400 5250 60  0001 C CNN
F 3 "" H 2400 5250 60  0001 C CNN
	1    2400 5250
	1    0    0    -1  
$EndComp
Text Label 2400 4700 0    60   ~ 0
USBD-
$Comp
L ESD_PROT U111
U 1 1 58F020D8
P 2850 5150
F 0 "U111" H 2550 4900 60  0000 C CNN
F 1 "ESD_PROT" H 3150 5400 60  0000 C CNN
F 2 "Local:SOT-143" H 2850 5150 60  0001 C CNN
F 3 "" H 2850 5150 60  0001 C CNN
	1    2850 5150
	1    0    0    1   
$EndComp
$Comp
L USB_OTG P110
U 1 1 58F020DF
P 4100 5400
F 0 "P110" V 3800 5400 60  0000 C CNN
F 1 "USB-OTG" H 4100 5600 60  0000 C CNN
F 2 "Local:USB_Mini-B" H 4100 5400 60  0001 C CNN
F 3 "" H 4100 5400 60  0001 C CNN
	1    4100 5400
	0    1    1    0   
$EndComp
Text Label 2950 5600 0    60   ~ 0
USBD+
$Comp
L C C115
U 1 1 58F020E7
P 2600 6050
F 0 "C115" H 2650 6150 50  0000 L CNN
F 1 "47p" H 2650 5950 50  0000 L CNN
F 2 "Local:C_0603" H 2600 6050 60  0001 C CNN
F 3 "" H 2600 6050 60  0001 C CNN
	1    2600 6050
	-1   0    0    -1  
$EndComp
$Comp
L GND #PWR038
U 1 1 58F020EE
P 2600 6300
F 0 "#PWR038" H 2600 6300 30  0001 C CNN
F 1 "GND" H 2600 6230 30  0001 C CNN
F 2 "" H 2600 6300 60  0001 C CNN
F 3 "" H 2600 6300 60  0001 C CNN
	1    2600 6300
	1    0    0    -1  
$EndComp
$Comp
L C C114
U 1 1 58F020F4
P 2300 6050
F 0 "C114" H 2350 6150 50  0000 L CNN
F 1 "47p" H 2350 5950 50  0000 L CNN
F 2 "Local:C_0603" H 2300 6050 60  0001 C CNN
F 3 "" H 2300 6050 60  0001 C CNN
	1    2300 6050
	-1   0    0    -1  
$EndComp
$Comp
L R R111
U 1 1 58F020FB
P 3250 5800
F 0 "R111" V 3330 5800 50  0000 C CNN
F 1 "22" V 3250 5800 50  0000 C CNN
F 2 "Local:R_0603" H 3250 5800 60  0001 C CNN
F 3 "" H 3250 5800 60  0001 C CNN
	1    3250 5800
	0    1    -1   0   
$EndComp
$Comp
L R R110
U 1 1 58F02102
P 2300 4950
F 0 "R110" V 2380 4950 50  0000 C CNN
F 1 "22" V 2300 4950 50  0000 C CNN
F 2 "Local:R_0603" H 2300 4950 60  0001 C CNN
F 3 "" H 2300 4950 60  0001 C CNN
	1    2300 4950
	-1   0    0    1   
$EndComp
Wire Wire Line
	3500 5800 3400 5800
Wire Wire Line
	2300 4700 3500 4700
Wire Wire Line
	2300 4800 2300 4700
Connection ~ 3500 5600
Wire Wire Line
	3500 5400 3500 6000
Connection ~ 2600 5800
Wire Wire Line
	2300 6200 2300 6300
Wire Wire Line
	2600 6300 2600 6200
Wire Wire Line
	2300 5100 2300 5900
Wire Wire Line
	2200 5700 2300 5700
Connection ~ 2300 5700
Wire Wire Line
	3700 5600 3800 5600
Wire Wire Line
	2850 4800 2850 4700
Connection ~ 2850 4700
Wire Wire Line
	2850 5600 2850 5500
Wire Wire Line
	2200 5800 3100 5800
Wire Wire Line
	2600 5800 2600 5900
Wire Wire Line
	3500 4700 3500 5300
Wire Wire Line
	2850 5600 3500 5600
Wire Wire Line
	2400 5150 2500 5150
Wire Wire Line
	2400 5250 2400 5150
Wire Wire Line
	3200 5150 3300 5150
Wire Wire Line
	3300 5150 3300 5050
Text GLabel 2200 5800 0    47   Input ~ 0
USB_DP
Text GLabel 2200 5700 0    47   Input ~ 0
USB_DM
Text GLabel 3400 6400 0    47   Input ~ 0
USB_CON
Wire Wire Line
	3500 5300 3800 5300
Wire Wire Line
	3800 5400 3500 5400
Text Notes 2600 8500 0    60   ~ 0
Three conditional USB Connection Logic\n~ \n\n1. USB Cable connected\n2. 2.7-3.3V appears on USB_DET\n3. Logic one applied to USB_CON
Text Notes 2200 4650 0    60   ~ 0
ESD and current peak protection\n~ 
Text GLabel 3700 5100 1    47   Input ~ 0
USB_5V
Wire Wire Line
	3800 5200 3700 5200
Wire Wire Line
	3700 5200 3700 5100
Text GLabel 4600 5400 1    47   Input ~ 0
USB_5V
$Comp
L R R114
U 1 1 58F0212C
P 4600 5650
F 0 "R114" V 4680 5650 50  0000 C CNN
F 1 "22K" V 4600 5650 50  0000 C CNN
F 2 "Local:R_0603" H 4600 5650 60  0001 C CNN
F 3 "" H 4600 5650 60  0001 C CNN
	1    4600 5650
	-1   0    0    -1  
$EndComp
$Comp
L C C113
U 1 1 58F02133
P 4900 6150
F 0 "C113" H 4950 6250 50  0000 L CNN
F 1 "100n" H 4950 6050 50  0000 L CNN
F 2 "Local:C_0603" H 4900 6150 60  0001 C CNN
F 3 "" H 4900 6150 60  0001 C CNN
	1    4900 6150
	-1   0    0    -1  
$EndComp
$Comp
L GND #PWR039
U 1 1 58F0213A
P 4900 6400
F 0 "#PWR039" H 4900 6150 50  0001 C CNN
F 1 "GND" H 4900 6250 50  0000 C CNN
F 2 "" H 4900 6400 60  0000 C CNN
F 3 "" H 4900 6400 60  0000 C CNN
	1    4900 6400
	1    0    0    -1  
$EndComp
Wire Wire Line
	4900 6300 4900 6400
Wire Wire Line
	4600 5400 4600 5500
Wire Wire Line
	4600 5800 4600 6000
Wire Wire Line
	4600 5900 5000 5900
Wire Wire Line
	4900 5900 4900 6000
Connection ~ 4600 5900
$Comp
L R R115
U 1 1 58F02146
P 4600 6150
F 0 "R115" V 4680 6150 50  0000 C CNN
F 1 "39K" V 4600 6150 50  0000 C CNN
F 2 "Local:R_0603" H 4600 6150 60  0001 C CNN
F 3 "" H 4600 6150 60  0001 C CNN
	1    4600 6150
	-1   0    0    -1  
$EndComp
Wire Wire Line
	4600 6300 4600 6400
$Comp
L GND #PWR040
U 1 1 58F0214E
P 4600 6400
F 0 "#PWR040" H 4600 6150 50  0001 C CNN
F 1 "GND" H 4600 6250 50  0000 C CNN
F 2 "" H 4600 6400 60  0000 C CNN
F 3 "" H 4600 6400 60  0000 C CNN
	1    4600 6400
	1    0    0    -1  
$EndComp
Text GLabel 5000 5900 2    47   Input ~ 0
USB_DET
Connection ~ 4900 5900
Wire Wire Line
	3500 6300 3500 6400
$Comp
L R R113
U 1 1 58F02157
P 4200 6150
F 0 "R113" V 4280 6150 50  0000 C CNN
F 1 "1M" V 4200 6150 50  0000 C CNN
F 2 "Local:R_0603" H 4200 6150 60  0001 C CNN
F 3 "" H 4200 6150 60  0001 C CNN
	1    4200 6150
	-1   0    0    -1  
$EndComp
$Comp
L C C112
U 1 1 58F0215E
P 3900 6150
F 0 "C112" H 3950 6250 50  0000 L CNN
F 1 "10n" H 3950 6050 50  0000 L CNN
F 2 "Local:C_0603" H 3900 6150 60  0001 C CNN
F 3 "" H 3900 6150 60  0001 C CNN
	1    3900 6150
	-1   0    0    -1  
$EndComp
$Comp
L GND #PWR041
U 1 1 58F02165
P 3700 5700
F 0 "#PWR041" H 3700 5700 30  0001 C CNN
F 1 "GND" H 3700 5630 30  0001 C CNN
F 2 "" H 3700 5700 60  0001 C CNN
F 3 "" H 3700 5700 60  0001 C CNN
	1    3700 5700
	1    0    0    -1  
$EndComp
Wire Wire Line
	3700 5600 3700 5700
Wire Wire Line
	4200 5800 4200 6000
Wire Wire Line
	4200 5900 3900 5900
Wire Wire Line
	3900 5900 3900 6000
Connection ~ 4200 5900
$Comp
L GND #PWR042
U 1 1 58F02170
P 4200 6400
F 0 "#PWR042" H 4200 6150 50  0001 C CNN
F 1 "GND" H 4200 6250 50  0000 C CNN
F 2 "" H 4200 6400 60  0000 C CNN
F 3 "" H 4200 6400 60  0000 C CNN
	1    4200 6400
	1    0    0    -1  
$EndComp
$Comp
L GND #PWR043
U 1 1 58F02176
P 3900 6400
F 0 "#PWR043" H 3900 6150 50  0001 C CNN
F 1 "GND" H 3900 6250 50  0000 C CNN
F 2 "" H 3900 6400 60  0000 C CNN
F 3 "" H 3900 6400 60  0000 C CNN
	1    3900 6400
	1    0    0    -1  
$EndComp
Wire Wire Line
	3900 6300 3900 6400
Wire Wire Line
	4200 6300 4200 6400
Wire Wire Line
	3800 5500 3700 5500
NoConn ~ 3700 5500
$Comp
L D_Schottky D110
U 1 1 58F02180
P 4450 4800
F 0 "D110" H 4450 4900 50  0000 C CNN
F 1 "SS14" H 4450 4700 50  0000 C CNN
F 2 "Local:SMA_Standard" H 4450 4800 60  0001 C CNN
F 3 "" H 4450 4800 60  0000 C CNN
	1    4450 4800
	-1   0    0    -1  
$EndComp
Text GLabel 4200 4800 0    47   Input ~ 0
USB_5V
Wire Wire Line
	4300 4800 4200 4800
Wire Wire Line
	4600 4800 4700 4800
Text GLabel 3300 5050 1    47   Input ~ 0
USB_5V
Connection ~ 3500 5800
$Comp
L GND #PWR044
U 1 1 58F0218D
P 2300 6300
F 0 "#PWR044" H 2300 6300 30  0001 C CNN
F 1 "GND" H 2300 6230 30  0001 C CNN
F 2 "" H 2300 6300 60  0001 C CNN
F 3 "" H 2300 6300 60  0001 C CNN
	1    2300 6300
	1    0    0    -1  
$EndComp
Wire Wire Line
	3500 6400 3400 6400
$Comp
L +5V #PWR045
U 1 1 58F02526
P 4700 4800
F 0 "#PWR045" H 4700 4650 50  0001 C CNN
F 1 "+5V" H 4700 4940 50  0000 C CNN
F 2 "" H 4700 4800 50  0000 C CNN
F 3 "" H 4700 4800 50  0000 C CNN
	1    4700 4800
	0    1    1    0   
$EndComp
Text GLabel 4600 1700 2    47   Input ~ 0
USB_DET
Text GLabel 4600 1800 2    47   Input ~ 0
USB_CON
$Comp
L CONN_01X04 P120
U 1 1 58F0C1D3
P 6300 2150
F 0 "P120" H 6300 2400 50  0000 C CNN
F 1 "UART1" V 6400 2150 50  0000 C CNN
F 2 "Local:Pin_Header_Straight_1x04_Pitch2.54mm" H 6300 2150 50  0001 C CNN
F 3 "" H 6300 2150 50  0000 C CNN
	1    6300 2150
	1    0    0    1   
$EndComp
Text GLabel 5900 2000 0    47   Input ~ 0
UART1_TX
Text GLabel 5900 2200 0    47   Input ~ 0
UART1_RX
$Comp
L GND #PWR046
U 1 1 58F0C780
P 6000 2400
F 0 "#PWR046" H 6000 2150 50  0001 C CNN
F 1 "GND" H 6000 2250 50  0000 C CNN
F 2 "" H 6000 2400 60  0000 C CNN
F 3 "" H 6000 2400 60  0000 C CNN
	1    6000 2400
	1    0    0    -1  
$EndComp
Wire Wire Line
	6100 2300 6000 2300
Wire Wire Line
	6000 2300 6000 2400
Wire Wire Line
	6100 2100 6000 2100
$Comp
L +3V3 #PWR047
U 1 1 58F0CA8F
P 6000 1900
F 0 "#PWR047" H 6000 1750 50  0001 C CNN
F 1 "+3V3" H 6000 2040 50  0000 C CNN
F 2 "" H 6000 1900 60  0000 C CNN
F 3 "" H 6000 1900 60  0000 C CNN
	1    6000 1900
	1    0    0    -1  
$EndComp
Wire Wire Line
	6100 2000 5900 2000
Wire Wire Line
	6100 2200 5900 2200
Wire Wire Line
	6000 2100 6000 1900
$Comp
L CONN_01X02 P111
U 1 1 58F0F142
P 2000 4950
F 0 "P111" H 2000 5100 50  0000 C CNN
F 1 "5V" V 2100 4950 50  0000 C CNN
F 2 "Local:Molex_KK-6410-02_02x2.54mm_Straight" H 2000 4950 50  0001 C CNN
F 3 "" H 2000 4950 50  0000 C CNN
	1    2000 4950
	1    0    0    1   
$EndComp
$Comp
L +5V #PWR048
U 1 1 58F0F328
P 1700 4800
F 0 "#PWR048" H 1700 4650 50  0001 C CNN
F 1 "+5V" H 1700 4940 50  0000 C CNN
F 2 "" H 1700 4800 50  0000 C CNN
F 3 "" H 1700 4800 50  0000 C CNN
	1    1700 4800
	1    0    0    -1  
$EndComp
$Comp
L GND #PWR049
U 1 1 58F0F451
P 1700 5100
F 0 "#PWR049" H 1700 4850 50  0001 C CNN
F 1 "GND" H 1700 4950 50  0000 C CNN
F 2 "" H 1700 5100 60  0000 C CNN
F 3 "" H 1700 5100 60  0000 C CNN
	1    1700 5100
	1    0    0    -1  
$EndComp
Wire Wire Line
	1800 4900 1700 4900
Wire Wire Line
	1700 4900 1700 4800
Wire Wire Line
	1800 5000 1700 5000
Wire Wire Line
	1700 5000 1700 5100
$Comp
L CONN_01X04 P121
U 1 1 58F11F18
P 7800 2150
F 0 "P121" H 7800 2400 50  0000 C CNN
F 1 "RS485_1" V 7900 2150 50  0000 C CNN
F 2 "Local:Pin_Header_Straight_1x04_Pitch2.54mm" H 7800 2150 50  0001 C CNN
F 3 "" H 7800 2150 50  0000 C CNN
	1    7800 2150
	1    0    0    1   
$EndComp
$Comp
L GND #PWR050
U 1 1 58F11F20
P 7500 2400
F 0 "#PWR050" H 7500 2150 50  0001 C CNN
F 1 "GND" H 7500 2250 50  0000 C CNN
F 2 "" H 7500 2400 60  0000 C CNN
F 3 "" H 7500 2400 60  0000 C CNN
	1    7500 2400
	1    0    0    -1  
$EndComp
Wire Wire Line
	7600 2300 7500 2300
Wire Wire Line
	7500 2300 7500 2400
Wire Wire Line
	7600 2000 7500 2000
$Comp
L +3V3 #PWR051
U 1 1 58F11F29
P 7500 1900
F 0 "#PWR051" H 7500 1750 50  0001 C CNN
F 1 "+3V3" H 7500 2040 50  0000 C CNN
F 2 "" H 7500 1900 60  0000 C CNN
F 3 "" H 7500 1900 60  0000 C CNN
	1    7500 1900
	1    0    0    -1  
$EndComp
Wire Wire Line
	7600 2100 7500 2100
Wire Wire Line
	7600 2200 7500 2200
Wire Wire Line
	7500 2000 7500 1900
Text GLabel 7500 2100 0    47   Input ~ 0
RS485_1B
Text GLabel 7500 2200 0    47   Input ~ 0
RS485_1A
$Comp
L RJ12 P132
U 1 1 58F13191
P 8850 3200
F 0 "P132" V 8450 3200 60  0000 C CNN
F 1 "RS485_2" V 9300 3100 60  0000 C CNN
F 2 "Local:RJ12" H 8850 3200 60  0001 C CNN
F 3 "" H 8850 3200 60  0000 C CNN
	1    8850 3200
	0    1    1    0   
$EndComp
$Comp
L GND #PWR052
U 1 1 58F13197
P 8300 3600
F 0 "#PWR052" H 8300 3350 50  0001 C CNN
F 1 "GND" H 8300 3450 50  0000 C CNN
F 2 "" H 8300 3600 60  0000 C CNN
F 3 "" H 8300 3600 60  0000 C CNN
	1    8300 3600
	1    0    0    -1  
$EndComp
$Comp
L RJ12 P133
U 1 1 58F1319D
P 10550 3200
F 0 "P133" V 10150 3200 60  0000 C CNN
F 1 "RS485_2" V 11000 3100 60  0000 C CNN
F 2 "Local:RJ12" H 10550 3200 60  0001 C CNN
F 3 "" H 10550 3200 60  0000 C CNN
	1    10550 3200
	0    1    1    0   
$EndComp
$Comp
L GND #PWR053
U 1 1 58F131A3
P 10000 3600
F 0 "#PWR053" H 10000 3350 50  0001 C CNN
F 1 "GND" H 10000 3450 50  0000 C CNN
F 2 "" H 10000 3600 60  0000 C CNN
F 3 "" H 10000 3600 60  0000 C CNN
	1    10000 3600
	1    0    0    -1  
$EndComp
$Comp
L GND #PWR054
U 1 1 58F131A9
P 6900 3400
F 0 "#PWR054" H 6900 3150 50  0001 C CNN
F 1 "GND" H 6900 3250 50  0000 C CNN
F 2 "" H 6900 3400 60  0000 C CNN
F 3 "" H 6900 3400 60  0000 C CNN
	1    6900 3400
	1    0    0    -1  
$EndComp
$Comp
L MAX485 U130
U 1 1 58F131AF
P 6400 3150
F 0 "U130" H 6400 3450 60  0000 C CNN
F 1 "MAX485" H 6400 2850 60  0000 C CNN
F 2 "Local:SOIC-8_3.9x4.9mm_Pitch1.27mm" H 6240 3150 60  0001 C CNN
F 3 "" H 6240 3150 60  0000 C CNN
	1    6400 3150
	1    0    0    -1  
$EndComp
$Comp
L +3V3 #PWR055
U 1 1 58F131B5
P 6900 2900
F 0 "#PWR055" H 6900 2750 50  0001 C CNN
F 1 "+3V3" H 6900 3040 50  0000 C CNN
F 2 "" H 6900 2900 60  0000 C CNN
F 3 "" H 6900 2900 60  0000 C CNN
	1    6900 2900
	1    0    0    -1  
$EndComp
Text GLabel 6900 3100 2    47   Input ~ 0
RS485_2B
Text GLabel 6900 3200 2    47   Input ~ 0
RS485_2A
Text GLabel 5900 3000 0    47   Input ~ 0
UART2_RX
Wire Wire Line
	6900 3300 6900 3400
Wire Wire Line
	10000 3200 10100 3200
Wire Wire Line
	10000 2900 10000 3200
Wire Wire Line
	10000 3400 10000 3600
Wire Wire Line
	10100 3400 10000 3400
Wire Wire Line
	8400 3300 8200 3300
Wire Wire Line
	8400 3100 8200 3100
Wire Wire Line
	8300 3200 8400 3200
Wire Wire Line
	8300 2900 8300 3200
Wire Wire Line
	8300 3400 8300 3600
Wire Wire Line
	8400 3400 8300 3400
Wire Wire Line
	6900 3300 6800 3300
Wire Wire Line
	6800 3000 6900 3000
Wire Wire Line
	6900 3000 6900 2900
Wire Wire Line
	6800 3100 6900 3100
Wire Wire Line
	6800 3200 6900 3200
Wire Wire Line
	6000 3000 5900 3000
Wire Wire Line
	6000 3100 5900 3100
Wire Wire Line
	6000 3200 5900 3200
Wire Wire Line
	6000 3300 5900 3300
Text GLabel 5900 3300 0    47   Input ~ 0
UART2_TX
Text GLabel 5900 3100 0    47   Input ~ 0
UART2_~RE
Text GLabel 5900 3200 0    47   Input ~ 0
UART2_DE
Text GLabel 8200 3100 0    47   Input ~ 0
RS485_2B
Text GLabel 8200 3300 0    47   Input ~ 0
RS485_2A
Wire Wire Line
	10100 3100 9900 3100
Wire Wire Line
	10100 3300 9900 3300
Text GLabel 9900 3100 0    47   Input ~ 0
RS485_2B
Text GLabel 9900 3300 0    47   Input ~ 0
RS485_2A
$Comp
L C C130
U 1 1 58F131DB
P 7500 3150
F 0 "C130" H 7525 3250 50  0000 L CNN
F 1 "100n" H 7525 3050 50  0000 L CNN
F 2 "Local:C_0603" H 7538 3000 30  0001 C CNN
F 3 "" H 7500 3150 60  0000 C CNN
	1    7500 3150
	1    0    0    -1  
$EndComp
$Comp
L +3V3 #PWR056
U 1 1 58F131E1
P 7500 2900
F 0 "#PWR056" H 7500 2750 50  0001 C CNN
F 1 "+3V3" H 7500 3040 50  0000 C CNN
F 2 "" H 7500 2900 60  0000 C CNN
F 3 "" H 7500 2900 60  0000 C CNN
	1    7500 2900
	1    0    0    -1  
$EndComp
$Comp
L GND #PWR057
U 1 1 58F131E7
P 7500 3400
F 0 "#PWR057" H 7500 3150 50  0001 C CNN
F 1 "GND" H 7500 3250 50  0000 C CNN
F 2 "" H 7500 3400 60  0000 C CNN
F 3 "" H 7500 3400 60  0000 C CNN
	1    7500 3400
	1    0    0    -1  
$EndComp
Wire Wire Line
	7500 3000 7500 2900
Wire Wire Line
	7500 3400 7500 3300
$Comp
L +3V3 #PWR058
U 1 1 58F131EF
P 8300 2900
F 0 "#PWR058" H 8300 2750 50  0001 C CNN
F 1 "+3V3" H 8300 3040 50  0000 C CNN
F 2 "" H 8300 2900 60  0000 C CNN
F 3 "" H 8300 2900 60  0000 C CNN
	1    8300 2900
	1    0    0    -1  
$EndComp
$Comp
L +3V3 #PWR059
U 1 1 58F131F5
P 10000 2900
F 0 "#PWR059" H 10000 2750 50  0001 C CNN
F 1 "+3V3" H 10000 3040 50  0000 C CNN
F 2 "" H 10000 2900 60  0000 C CNN
F 3 "" H 10000 2900 60  0000 C CNN
	1    10000 2900
	1    0    0    -1  
$EndComp
NoConn ~ 8400 3000
NoConn ~ 8400 3500
NoConn ~ 10100 3000
NoConn ~ 10100 3500
$Comp
L CONN_01X04 P130
U 1 1 58F13201
P 9000 2150
F 0 "P130" H 9000 2400 50  0000 C CNN
F 1 "UART2" V 9100 2150 50  0000 C CNN
F 2 "Local:Pin_Header_Straight_1x04_Pitch2.54mm" H 9000 2150 50  0001 C CNN
F 3 "" H 9000 2150 50  0000 C CNN
	1    9000 2150
	1    0    0    1   
$EndComp
Text GLabel 8600 2000 0    47   Input ~ 0
UART2_TX
Text GLabel 8600 2200 0    47   Input ~ 0
UART2_RX
$Comp
L GND #PWR060
U 1 1 58F13209
P 8700 2400
F 0 "#PWR060" H 8700 2150 50  0001 C CNN
F 1 "GND" H 8700 2250 50  0000 C CNN
F 2 "" H 8700 2400 60  0000 C CNN
F 3 "" H 8700 2400 60  0000 C CNN
	1    8700 2400
	1    0    0    -1  
$EndComp
Wire Wire Line
	8800 2300 8700 2300
Wire Wire Line
	8700 2300 8700 2400
Wire Wire Line
	8800 2100 8700 2100
$Comp
L +3V3 #PWR061
U 1 1 58F13212
P 8700 1900
F 0 "#PWR061" H 8700 1750 50  0001 C CNN
F 1 "+3V3" H 8700 2040 50  0000 C CNN
F 2 "" H 8700 1900 60  0000 C CNN
F 3 "" H 8700 1900 60  0000 C CNN
	1    8700 1900
	1    0    0    -1  
$EndComp
Wire Wire Line
	8800 2000 8600 2000
Wire Wire Line
	8800 2200 8600 2200
Wire Wire Line
	8700 2100 8700 1900
$Comp
L CONN_01X04 P131
U 1 1 58F1321B
P 10600 2150
F 0 "P131" H 10600 2400 50  0000 C CNN
F 1 "RS485_2" V 10700 2150 50  0000 C CNN
F 2 "Local:Pin_Header_Straight_1x04_Pitch2.54mm" H 10600 2150 50  0001 C CNN
F 3 "" H 10600 2150 50  0000 C CNN
	1    10600 2150
	1    0    0    1   
$EndComp
$Comp
L GND #PWR062
U 1 1 58F13221
P 10300 2400
F 0 "#PWR062" H 10300 2150 50  0001 C CNN
F 1 "GND" H 10300 2250 50  0000 C CNN
F 2 "" H 10300 2400 60  0000 C CNN
F 3 "" H 10300 2400 60  0000 C CNN
	1    10300 2400
	1    0    0    -1  
$EndComp
Wire Wire Line
	10400 2300 10300 2300
Wire Wire Line
	10300 2300 10300 2400
Wire Wire Line
	10400 2000 10300 2000
$Comp
L +3V3 #PWR063
U 1 1 58F1322A
P 10300 1900
F 0 "#PWR063" H 10300 1750 50  0001 C CNN
F 1 "+3V3" H 10300 2040 50  0000 C CNN
F 2 "" H 10300 1900 60  0000 C CNN
F 3 "" H 10300 1900 60  0000 C CNN
	1    10300 1900
	1    0    0    -1  
$EndComp
Wire Wire Line
	10400 2100 10300 2100
Wire Wire Line
	10400 2200 10300 2200
Wire Wire Line
	10300 2000 10300 1900
Text GLabel 10300 2100 0    47   Input ~ 0
RS485_2B
Text GLabel 10300 2200 0    47   Input ~ 0
RS485_2A
$Comp
L RJ12 P142
U 1 1 58F14845
P 8850 4400
F 0 "P142" V 8450 4400 60  0000 C CNN
F 1 "RS485_3" V 9300 4300 60  0000 C CNN
F 2 "Local:RJ12" H 8850 4400 60  0001 C CNN
F 3 "" H 8850 4400 60  0000 C CNN
	1    8850 4400
	0    1    1    0   
$EndComp
$Comp
L GND #PWR064
U 1 1 58F1484B
P 8300 4800
F 0 "#PWR064" H 8300 4550 50  0001 C CNN
F 1 "GND" H 8300 4650 50  0000 C CNN
F 2 "" H 8300 4800 60  0000 C CNN
F 3 "" H 8300 4800 60  0000 C CNN
	1    8300 4800
	1    0    0    -1  
$EndComp
$Comp
L RJ12 P143
U 1 1 58F14851
P 10550 4400
F 0 "P143" V 10150 4400 60  0000 C CNN
F 1 "RS485_3" V 11000 4300 60  0000 C CNN
F 2 "Local:RJ12" H 10550 4400 60  0001 C CNN
F 3 "" H 10550 4400 60  0000 C CNN
	1    10550 4400
	0    1    1    0   
$EndComp
$Comp
L GND #PWR065
U 1 1 58F14857
P 10000 4800
F 0 "#PWR065" H 10000 4550 50  0001 C CNN
F 1 "GND" H 10000 4650 50  0000 C CNN
F 2 "" H 10000 4800 60  0000 C CNN
F 3 "" H 10000 4800 60  0000 C CNN
	1    10000 4800
	1    0    0    -1  
$EndComp
$Comp
L GND #PWR066
U 1 1 58F1485D
P 6900 4600
F 0 "#PWR066" H 6900 4350 50  0001 C CNN
F 1 "GND" H 6900 4450 50  0000 C CNN
F 2 "" H 6900 4600 60  0000 C CNN
F 3 "" H 6900 4600 60  0000 C CNN
	1    6900 4600
	1    0    0    -1  
$EndComp
$Comp
L MAX485 U140
U 1 1 58F14863
P 6400 4350
F 0 "U140" H 6400 4650 60  0000 C CNN
F 1 "MAX485" H 6400 4050 60  0000 C CNN
F 2 "Local:SOIC-8_3.9x4.9mm_Pitch1.27mm" H 6240 4350 60  0001 C CNN
F 3 "" H 6240 4350 60  0000 C CNN
	1    6400 4350
	1    0    0    -1  
$EndComp
$Comp
L +3V3 #PWR067
U 1 1 58F14869
P 6900 4100
F 0 "#PWR067" H 6900 3950 50  0001 C CNN
F 1 "+3V3" H 6900 4240 50  0000 C CNN
F 2 "" H 6900 4100 60  0000 C CNN
F 3 "" H 6900 4100 60  0000 C CNN
	1    6900 4100
	1    0    0    -1  
$EndComp
Text GLabel 6900 4300 2    47   Input ~ 0
RS485_3B
Text GLabel 6900 4400 2    47   Input ~ 0
RS485_3A
Text GLabel 5900 4200 0    47   Input ~ 0
UART3_RX
Wire Wire Line
	6900 4500 6900 4600
Wire Wire Line
	10000 4400 10100 4400
Wire Wire Line
	10000 4100 10000 4400
Wire Wire Line
	10000 4600 10000 4800
Wire Wire Line
	10100 4600 10000 4600
Wire Wire Line
	8400 4500 8200 4500
Wire Wire Line
	8400 4300 8200 4300
Wire Wire Line
	8300 4400 8400 4400
Wire Wire Line
	8300 4100 8300 4400
Wire Wire Line
	8300 4600 8300 4800
Wire Wire Line
	8400 4600 8300 4600
Wire Wire Line
	6900 4500 6800 4500
Wire Wire Line
	6800 4200 6900 4200
Wire Wire Line
	6900 4200 6900 4100
Wire Wire Line
	6800 4300 6900 4300
Wire Wire Line
	6800 4400 6900 4400
Wire Wire Line
	6000 4200 5900 4200
Wire Wire Line
	6000 4300 5900 4300
Wire Wire Line
	6000 4400 5900 4400
Wire Wire Line
	6000 4500 5900 4500
Text GLabel 5900 4500 0    47   Input ~ 0
UART3_TX
Text GLabel 5900 4300 0    47   Input ~ 0
UART3_~RE
Text GLabel 5900 4400 0    47   Input ~ 0
UART3_DE
Text GLabel 8200 4300 0    47   Input ~ 0
RS485_3B
Text GLabel 8200 4500 0    47   Input ~ 0
RS485_3A
Wire Wire Line
	10100 4300 9900 4300
Wire Wire Line
	10100 4500 9900 4500
Text GLabel 9900 4300 0    47   Input ~ 0
RS485_3B
Text GLabel 9900 4500 0    47   Input ~ 0
RS485_3A
$Comp
L C C140
U 1 1 58F1488F
P 7500 4350
F 0 "C140" H 7525 4450 50  0000 L CNN
F 1 "100n" H 7525 4250 50  0000 L CNN
F 2 "Local:C_0603" H 7538 4200 30  0001 C CNN
F 3 "" H 7500 4350 60  0000 C CNN
	1    7500 4350
	1    0    0    -1  
$EndComp
$Comp
L +3V3 #PWR068
U 1 1 58F14895
P 7500 4100
F 0 "#PWR068" H 7500 3950 50  0001 C CNN
F 1 "+3V3" H 7500 4240 50  0000 C CNN
F 2 "" H 7500 4100 60  0000 C CNN
F 3 "" H 7500 4100 60  0000 C CNN
	1    7500 4100
	1    0    0    -1  
$EndComp
$Comp
L GND #PWR069
U 1 1 58F1489B
P 7500 4600
F 0 "#PWR069" H 7500 4350 50  0001 C CNN
F 1 "GND" H 7500 4450 50  0000 C CNN
F 2 "" H 7500 4600 60  0000 C CNN
F 3 "" H 7500 4600 60  0000 C CNN
	1    7500 4600
	1    0    0    -1  
$EndComp
Wire Wire Line
	7500 4200 7500 4100
Wire Wire Line
	7500 4600 7500 4500
$Comp
L +3V3 #PWR070
U 1 1 58F148A3
P 8300 4100
F 0 "#PWR070" H 8300 3950 50  0001 C CNN
F 1 "+3V3" H 8300 4240 50  0000 C CNN
F 2 "" H 8300 4100 60  0000 C CNN
F 3 "" H 8300 4100 60  0000 C CNN
	1    8300 4100
	1    0    0    -1  
$EndComp
$Comp
L +3V3 #PWR071
U 1 1 58F148A9
P 10000 4100
F 0 "#PWR071" H 10000 3950 50  0001 C CNN
F 1 "+3V3" H 10000 4240 50  0000 C CNN
F 2 "" H 10000 4100 60  0000 C CNN
F 3 "" H 10000 4100 60  0000 C CNN
	1    10000 4100
	1    0    0    -1  
$EndComp
NoConn ~ 8400 4200
NoConn ~ 8400 4700
NoConn ~ 10100 4200
NoConn ~ 10100 4700
$Comp
L CONN_01X04 P140
U 1 1 58F148B5
P 9900 5550
F 0 "P140" H 9900 5800 50  0000 C CNN
F 1 "UART3" V 10000 5550 50  0000 C CNN
F 2 "Local:Pin_Header_Straight_1x04_Pitch2.54mm" H 9900 5550 50  0001 C CNN
F 3 "" H 9900 5550 50  0000 C CNN
	1    9900 5550
	1    0    0    1   
$EndComp
Text GLabel 9500 5400 0    47   Input ~ 0
UART3_TX
Text GLabel 9500 5600 0    47   Input ~ 0
UART3_RX
$Comp
L GND #PWR072
U 1 1 58F148BD
P 9600 5800
F 0 "#PWR072" H 9600 5550 50  0001 C CNN
F 1 "GND" H 9600 5650 50  0000 C CNN
F 2 "" H 9600 5800 60  0000 C CNN
F 3 "" H 9600 5800 60  0000 C CNN
	1    9600 5800
	1    0    0    -1  
$EndComp
Wire Wire Line
	9700 5700 9600 5700
Wire Wire Line
	9600 5700 9600 5800
Wire Wire Line
	9700 5500 9600 5500
$Comp
L +3V3 #PWR073
U 1 1 58F148C6
P 9600 5300
F 0 "#PWR073" H 9600 5150 50  0001 C CNN
F 1 "+3V3" H 9600 5440 50  0000 C CNN
F 2 "" H 9600 5300 60  0000 C CNN
F 3 "" H 9600 5300 60  0000 C CNN
	1    9600 5300
	1    0    0    -1  
$EndComp
Wire Wire Line
	9700 5400 9500 5400
Wire Wire Line
	9700 5600 9500 5600
Wire Wire Line
	9600 5500 9600 5300
$Comp
L CONN_01X04 P141
U 1 1 58F148CF
P 10800 5550
F 0 "P141" H 10800 5800 50  0000 C CNN
F 1 "RS485_3" V 10900 5550 50  0000 C CNN
F 2 "Local:Pin_Header_Straight_1x04_Pitch2.54mm" H 10800 5550 50  0001 C CNN
F 3 "" H 10800 5550 50  0000 C CNN
	1    10800 5550
	1    0    0    1   
$EndComp
$Comp
L GND #PWR074
U 1 1 58F148D5
P 10500 5800
F 0 "#PWR074" H 10500 5550 50  0001 C CNN
F 1 "GND" H 10500 5650 50  0000 C CNN
F 2 "" H 10500 5800 60  0000 C CNN
F 3 "" H 10500 5800 60  0000 C CNN
	1    10500 5800
	1    0    0    -1  
$EndComp
Wire Wire Line
	10600 5700 10500 5700
Wire Wire Line
	10500 5700 10500 5800
Wire Wire Line
	10600 5400 10500 5400
$Comp
L +3V3 #PWR075
U 1 1 58F148DE
P 10500 5300
F 0 "#PWR075" H 10500 5150 50  0001 C CNN
F 1 "+3V3" H 10500 5440 50  0000 C CNN
F 2 "" H 10500 5300 60  0000 C CNN
F 3 "" H 10500 5300 60  0000 C CNN
	1    10500 5300
	1    0    0    -1  
$EndComp
Wire Wire Line
	10600 5500 10500 5500
Wire Wire Line
	10600 5600 10500 5600
Wire Wire Line
	10500 5400 10500 5300
Text GLabel 10500 5500 0    47   Input ~ 0
RS485_3B
Text GLabel 10500 5600 0    47   Input ~ 0
RS485_3A
$Comp
L LED D100
U 1 1 58F199E8
P 5900 5850
F 0 "D100" H 5900 5950 50  0000 C CNN
F 1 "PWR" H 5900 5750 50  0000 C CNN
F 2 "Local:LED_0603" H 5900 5850 50  0001 C CNN
F 3 "" H 5900 5850 50  0000 C CNN
	1    5900 5850
	0    -1   -1   0   
$EndComp
$Comp
L R R101
U 1 1 58F19E59
P 5900 5450
F 0 "R101" V 5980 5450 50  0000 C CNN
F 1 "220" V 5900 5450 50  0000 C CNN
F 2 "Local:R_0603" H 5900 5450 60  0001 C CNN
F 3 "" H 5900 5450 60  0001 C CNN
	1    5900 5450
	-1   0    0    -1  
$EndComp
Wire Wire Line
	5900 5600 5900 5700
Wire Wire Line
	5900 5300 5900 5200
Wire Wire Line
	5900 6000 5900 6100
$Comp
L +3V3 #PWR076
U 1 1 58F1AA48
P 5900 5200
F 0 "#PWR076" H 5900 5050 50  0001 C CNN
F 1 "+3V3" H 5900 5340 50  0000 C CNN
F 2 "" H 5900 5200 60  0000 C CNN
F 3 "" H 5900 5200 60  0000 C CNN
	1    5900 5200
	1    0    0    -1  
$EndComp
Text GLabel 5900 6100 3    47   Input ~ 0
POWER_SI
Text GLabel 4600 900  2    47   Input ~ 0
POWER_SI
Wire Wire Line
	4600 900  4500 900 
Wire Wire Line
	4600 1700 4500 1700
Wire Wire Line
	4600 1800 4500 1800
Text GLabel 1200 1400 0    47   Input ~ 0
UART_RI
Wire Wire Line
	4600 1000 4500 1000
Text GLabel 1200 1600 0    47   Input ~ 0
UART_TI
Wire Wire Line
	4600 1100 4500 1100
Text GLabel 6500 6100 3    47   Input ~ 0
UART_RI
Text GLabel 6800 6100 3    47   Input ~ 0
UART_TI
$Comp
L LED D120
U 1 1 58F1D991
P 6500 5850
F 0 "D120" H 6500 5950 50  0000 C CNN
F 1 "RXS" H 6500 5750 50  0000 C CNN
F 2 "Local:LED_0603" H 6500 5850 50  0001 C CNN
F 3 "" H 6500 5850 50  0000 C CNN
	1    6500 5850
	0    -1   -1   0   
$EndComp
$Comp
L LED D121
U 1 1 58F1DA59
P 6800 5850
F 0 "D121" H 6800 5950 50  0000 C CNN
F 1 "TXS" H 6800 5750 50  0000 C CNN
F 2 "Local:LED_0603" H 6800 5850 50  0001 C CNN
F 3 "" H 6800 5850 50  0000 C CNN
	1    6800 5850
	0    -1   -1   0   
$EndComp
Wire Wire Line
	6500 6100 6500 6000
Wire Wire Line
	6800 6100 6800 6000
$Comp
L R R120
U 1 1 58F1DFDC
P 6500 5450
F 0 "R120" V 6580 5450 50  0000 C CNN
F 1 "220" V 6500 5450 50  0000 C CNN
F 2 "Local:R_0603" H 6500 5450 60  0001 C CNN
F 3 "" H 6500 5450 60  0001 C CNN
	1    6500 5450
	-1   0    0    -1  
$EndComp
$Comp
L R R121
U 1 1 58F1E0A6
P 6800 5450
F 0 "R121" V 6880 5450 50  0000 C CNN
F 1 "220" V 6800 5450 50  0000 C CNN
F 2 "Local:R_0603" H 6800 5450 60  0001 C CNN
F 3 "" H 6800 5450 60  0001 C CNN
	1    6800 5450
	-1   0    0    -1  
$EndComp
Wire Wire Line
	6800 5700 6800 5600
Wire Wire Line
	6500 5700 6500 5600
Wire Wire Line
	6500 5200 6500 5300
Wire Wire Line
	6800 5200 6800 5300
$Comp
L +3V3 #PWR077
U 1 1 58F1E6CD
P 6500 5200
F 0 "#PWR077" H 6500 5050 50  0001 C CNN
F 1 "+3V3" H 6500 5340 50  0000 C CNN
F 2 "" H 6500 5200 60  0000 C CNN
F 3 "" H 6500 5200 60  0000 C CNN
	1    6500 5200
	1    0    0    -1  
$EndComp
$Comp
L +3V3 #PWR078
U 1 1 58F1E789
P 6800 5200
F 0 "#PWR078" H 6800 5050 50  0001 C CNN
F 1 "+3V3" H 6800 5340 50  0000 C CNN
F 2 "" H 6800 5200 60  0000 C CNN
F 3 "" H 6800 5200 60  0000 C CNN
	1    6800 5200
	1    0    0    -1  
$EndComp
Wire Wire Line
	4600 1200 4500 1200
Wire Wire Line
	4600 1300 4500 1300
Wire Wire Line
	4600 1400 4500 1400
Wire Wire Line
	4600 1500 4500 1500
Wire Wire Line
	4500 1600 4600 1600
NoConn ~ 4600 1600
$Comp
L PWR_FLAG #FLG079
U 1 1 58F35DAA
P 800 6250
F 0 "#FLG079" H 800 6345 50  0001 C CNN
F 1 "PWR_FLAG" H 800 6430 50  0000 C CNN
F 2 "" H 800 6250 50  0000 C CNN
F 3 "" H 800 6250 50  0000 C CNN
	1    800  6250
	0    -1   -1   0   
$EndComp
$Comp
L +5V #PWR080
U 1 1 58F36017
P 900 6250
F 0 "#PWR080" H 900 6100 50  0001 C CNN
F 1 "+5V" H 900 6390 50  0000 C CNN
F 2 "" H 900 6250 50  0000 C CNN
F 3 "" H 900 6250 50  0000 C CNN
	1    900  6250
	0    1    1    0   
$EndComp
Wire Wire Line
	900  6250 800  6250
$Comp
L GND #PWR081
U 1 1 58F3743A
P 1650 6200
F 0 "#PWR081" H 1650 5950 60  0001 C CNN
F 1 "GND" H 1650 6050 60  0000 C CNN
F 2 "" H 1650 6200 60  0000 C CNN
F 3 "" H 1650 6200 60  0000 C CNN
	1    1650 6200
	1    0    0    -1  
$EndComp
$Comp
L PWR_FLAG #FLG082
U 1 1 58F376E3
P 1650 6100
F 0 "#FLG082" H 1650 6195 50  0001 C CNN
F 1 "PWR_FLAG" H 1650 6280 50  0000 C CNN
F 2 "" H 1650 6100 50  0000 C CNN
F 3 "" H 1650 6100 50  0000 C CNN
	1    1650 6100
	1    0    0    -1  
$EndComp
Wire Wire Line
	1650 6100 1650 6200
$Comp
L GND #PWR083
U 1 1 58F37E98
P 700 2900
F 0 "#PWR083" H 700 2650 60  0001 C CNN
F 1 "GND" H 700 2750 60  0000 C CNN
F 2 "" H 700 2900 60  0000 C CNN
F 3 "" H 700 2900 60  0000 C CNN
	1    700  2900
	1    0    0    -1  
$EndComp
Text GLabel 1200 2900 0    47   Input ~ 0
BOOT0
Text GLabel 700  2400 1    47   Input ~ 0
BOOT0
$Comp
L R R102
U 1 1 58F38AA4
P 700 2650
F 0 "R102" V 780 2650 50  0000 C CNN
F 1 "10K" V 700 2650 50  0000 C CNN
F 2 "Local:R_0603" H 700 2650 60  0001 C CNN
F 3 "" H 700 2650 60  0001 C CNN
	1    700  2650
	-1   0    0    -1  
$EndComp
Wire Wire Line
	700  2900 700  2800
Wire Wire Line
	700  2500 700  2400
Wire Wire Line
	4500 1900 4600 1900
Wire Wire Line
	4500 2000 4600 2000
Wire Wire Line
	4500 2100 4600 2100
Wire Wire Line
	4500 2200 4600 2200
Wire Wire Line
	4500 2300 4600 2300
Wire Wire Line
	4500 2400 4600 2400
Wire Wire Line
	4500 2600 4600 2600
Wire Wire Line
	4500 2700 4600 2700
Wire Wire Line
	4500 2800 4600 2800
Wire Wire Line
	4500 2900 4600 2900
Wire Wire Line
	4500 3000 4600 3000
Wire Wire Line
	4500 3100 4600 3100
Wire Wire Line
	4500 3200 4600 3200
Wire Wire Line
	4500 3300 4600 3300
Wire Wire Line
	4500 3400 4600 3400
Wire Wire Line
	4500 3500 4600 3500
NoConn ~ 1200 1700
NoConn ~ 1200 1300
NoConn ~ 4600 3800
NoConn ~ 4600 3500
NoConn ~ 4600 3400
NoConn ~ 4600 3300
NoConn ~ 4600 3200
NoConn ~ 4600 3100
NoConn ~ 4600 3000
NoConn ~ 4600 2900
NoConn ~ 4600 2800
NoConn ~ 4600 2600
NoConn ~ 4600 2400
NoConn ~ 4600 2300
NoConn ~ 4600 2200
NoConn ~ 4600 1900
NoConn ~ 4600 3900
$Comp
L +3V3 #PWR084
U 1 1 58F0EE73
P 4600 1200
F 0 "#PWR084" H 4600 1050 60  0001 C CNN
F 1 "+3V3" V 4600 1450 60  0000 C CNN
F 2 "" H 4600 1200 60  0000 C CNN
F 3 "" H 4600 1200 60  0000 C CNN
	1    4600 1200
	0    1    1    0   
$EndComp
NoConn ~ 4600 1300
NoConn ~ 4600 1400
NoConn ~ 4600 1500
NoConn ~ 4600 1100
NoConn ~ 4600 1000
NoConn ~ 1200 1500
Wire Wire Line
	9150 4900 9150 5000
Wire Wire Line
	9250 4900 9250 5000
$Comp
L GND #PWR085
U 1 1 58F12C0B
P 9150 5000
F 0 "#PWR085" H 9150 4750 50  0001 C CNN
F 1 "GND" H 9150 4850 50  0000 C CNN
F 2 "" H 9150 5000 60  0000 C CNN
F 3 "" H 9150 5000 60  0000 C CNN
	1    9150 5000
	1    0    0    -1  
$EndComp
$Comp
L GND #PWR086
U 1 1 58F12CC4
P 9250 5000
F 0 "#PWR086" H 9250 4750 50  0001 C CNN
F 1 "GND" H 9250 4850 50  0000 C CNN
F 2 "" H 9250 5000 60  0000 C CNN
F 3 "" H 9250 5000 60  0000 C CNN
	1    9250 5000
	1    0    0    -1  
$EndComp
Wire Wire Line
	10850 4900 10850 5000
Wire Wire Line
	10950 4900 10950 5000
$Comp
L GND #PWR087
U 1 1 58F12E2F
P 10850 5000
F 0 "#PWR087" H 10850 4750 50  0001 C CNN
F 1 "GND" H 10850 4850 50  0000 C CNN
F 2 "" H 10850 5000 60  0000 C CNN
F 3 "" H 10850 5000 60  0000 C CNN
	1    10850 5000
	1    0    0    -1  
$EndComp
$Comp
L GND #PWR088
U 1 1 58F12E35
P 10950 5000
F 0 "#PWR088" H 10950 4750 50  0001 C CNN
F 1 "GND" H 10950 4850 50  0000 C CNN
F 2 "" H 10950 5000 60  0000 C CNN
F 3 "" H 10950 5000 60  0000 C CNN
	1    10950 5000
	1    0    0    -1  
$EndComp
Wire Wire Line
	10850 3700 10850 3800
Wire Wire Line
	10950 3700 10950 3800
$Comp
L GND #PWR089
U 1 1 58F12F9B
P 10850 3800
F 0 "#PWR089" H 10850 3550 50  0001 C CNN
F 1 "GND" H 10850 3650 50  0000 C CNN
F 2 "" H 10850 3800 60  0000 C CNN
F 3 "" H 10850 3800 60  0000 C CNN
	1    10850 3800
	1    0    0    -1  
$EndComp
$Comp
L GND #PWR090
U 1 1 58F12FA1
P 10950 3800
F 0 "#PWR090" H 10950 3550 50  0001 C CNN
F 1 "GND" H 10950 3650 50  0000 C CNN
F 2 "" H 10950 3800 60  0000 C CNN
F 3 "" H 10950 3800 60  0000 C CNN
	1    10950 3800
	1    0    0    -1  
$EndComp
Wire Wire Line
	9150 3700 9150 3800
Wire Wire Line
	9250 3700 9250 3800
$Comp
L GND #PWR091
U 1 1 58F13093
P 9150 3800
F 0 "#PWR091" H 9150 3550 50  0001 C CNN
F 1 "GND" H 9150 3650 50  0000 C CNN
F 2 "" H 9150 3800 60  0000 C CNN
F 3 "" H 9150 3800 60  0000 C CNN
	1    9150 3800
	1    0    0    -1  
$EndComp
$Comp
L GND #PWR092
U 1 1 58F13099
P 9250 3800
F 0 "#PWR092" H 9250 3550 50  0001 C CNN
F 1 "GND" H 9250 3650 50  0000 C CNN
F 2 "" H 9250 3800 60  0000 C CNN
F 3 "" H 9250 3800 60  0000 C CNN
	1    9250 3800
	1    0    0    -1  
$EndComp
Wire Wire Line
	9150 1700 9150 1800
Wire Wire Line
	9250 1700 9250 1800
$Comp
L GND #PWR093
U 1 1 58F13239
P 9150 1800
F 0 "#PWR093" H 9150 1550 50  0001 C CNN
F 1 "GND" H 9150 1650 50  0000 C CNN
F 2 "" H 9150 1800 60  0000 C CNN
F 3 "" H 9150 1800 60  0000 C CNN
	1    9150 1800
	1    0    0    -1  
$EndComp
$Comp
L GND #PWR094
U 1 1 58F1323F
P 9250 1800
F 0 "#PWR094" H 9250 1550 50  0001 C CNN
F 1 "GND" H 9250 1650 50  0000 C CNN
F 2 "" H 9250 1800 60  0000 C CNN
F 3 "" H 9250 1800 60  0000 C CNN
	1    9250 1800
	1    0    0    -1  
$EndComp
Wire Wire Line
	10850 1700 10850 1800
Wire Wire Line
	10950 1700 10950 1800
$Comp
L GND #PWR095
U 1 1 58F1348D
P 10850 1800
F 0 "#PWR095" H 10850 1550 50  0001 C CNN
F 1 "GND" H 10850 1650 50  0000 C CNN
F 2 "" H 10850 1800 60  0000 C CNN
F 3 "" H 10850 1800 60  0000 C CNN
	1    10850 1800
	1    0    0    -1  
$EndComp
$Comp
L GND #PWR096
U 1 1 58F13493
P 10950 1800
F 0 "#PWR096" H 10950 1550 50  0001 C CNN
F 1 "GND" H 10950 1650 50  0000 C CNN
F 2 "" H 10950 1800 60  0000 C CNN
F 3 "" H 10950 1800 60  0000 C CNN
	1    10950 1800
	1    0    0    -1  
$EndComp
$Comp
L CONN_01X02 P112
U 1 1 58F140CB
P 7900 5550
F 0 "P112" H 7900 5700 50  0000 C CNN
F 1 "3V3" V 8000 5550 50  0000 C CNN
F 2 "Local:Molex_KK-6410-02_02x2.54mm_Straight" H 7900 5550 50  0001 C CNN
F 3 "" H 7900 5550 50  0000 C CNN
	1    7900 5550
	1    0    0    1   
$EndComp
$Comp
L GND #PWR?
U 1 1 58F140D7
P 7600 5700
F 0 "#PWR?" H 7600 5450 50  0001 C CNN
F 1 "GND" H 7600 5550 50  0000 C CNN
F 2 "" H 7600 5700 60  0000 C CNN
F 3 "" H 7600 5700 60  0000 C CNN
	1    7600 5700
	1    0    0    -1  
$EndComp
Wire Wire Line
	7700 5500 7600 5500
Wire Wire Line
	7600 5500 7600 5400
Wire Wire Line
	7700 5600 7600 5600
Wire Wire Line
	7600 5600 7600 5700
$Comp
L +3V3 #PWR?
U 1 1 58F14887
P 7600 5400
F 0 "#PWR?" H 7600 5250 50  0001 C CNN
F 1 "+3V3" H 7600 5540 50  0000 C CNN
F 2 "" H 7600 5400 60  0000 C CNN
F 3 "" H 7600 5400 60  0000 C CNN
	1    7600 5400
	1    0    0    -1  
$EndComp
$EndSCHEMATC
